[gd_scene load_steps=3 format=3 uid="uid://dtjkqfkkgv5id"]

[ext_resource type="Script" path="res://ld53/ld53.gd" id="1_vjvpg"]
[ext_resource type="Resource" uid="uid://dg1xsx2djidqr" path="res://ld53/data/wm.tres" id="2_83q25"]

[node name="LD53" type="Node"]
script = ExtResource("1_vjvpg")
window_manager = ExtResource("2_83q25")
