[gd_scene load_steps=2 format=3 uid="uid://dtlbpisvrdpaa"]

[ext_resource type="Script" path="res://ld53/components/collision.gd" id="1_587gs"]

[node name="Collision" type="Node"]
script = ExtResource("1_587gs")
