[gd_scene load_steps=2 format=3 uid="uid://dvb63mmkr7y3o"]

[ext_resource type="Script" path="res://ld53/components/tick_action.gd" id="1_vh25u"]

[node name="TickAction" type="Node"]
script = ExtResource("1_vh25u")
