[gd_scene load_steps=2 format=3 uid="uid://jqj5tm11k0e6"]

[ext_resource type="Script" path="res://ld53/systems/moveto_system.gd" id="1_mg4sm"]

[node name="MovetoSystem" type="Node"]
script = ExtResource("1_mg4sm")
COMPONENTS = "moveto"
