[gd_scene load_steps=2 format=3 uid="uid://dhxcp46rrq6sp"]

[ext_resource type="Script" path="res://ld53/systems/pigeon_system.gd" id="1_2boop"]

[node name="PigeonSystem" type="Node"]
script = ExtResource("1_2boop")
COMPONENTS = "pigeon"
