[gd_scene load_steps=2 format=3 uid="uid://d3l2kky7jtypa"]

[ext_resource type="Script" path="res://ld53/systems/tick_action_system.gd" id="1_6l50c"]

[node name="TickActionSystem" type="Node"]
script = ExtResource("1_6l50c")
COMPONENTS = "tickaction"
