[gd_scene load_steps=2 format=3 uid="uid://bf2nvgti576hp"]

[ext_resource type="Texture2D" uid="uid://clla74eei7la0" path="res://ld53/assets/grass.png" id="1_qnweo"]

[node name="WorkGrass" type="Node2D"]

[node name="Grass" type="Sprite2D" parent="."]
texture = ExtResource("1_qnweo")
centered = false
offset = Vector2(0, -24)
